KLEE: WARNING: executable has module level assembly (ignoring)
KLEE: WARNING ONCE: calling external: syscall(16, 0, 21505, 94823409947712) at /home/hooman/Repos/klee/runtime/POSIX/fd.c:1007 10
KLEE: WARNING ONCE: Alignment of memory from call "malloc" is not modelled. Using alignment of 8.
KLEE: WARNING ONCE: calling external: gettimeofday(94823390305808, 0) at timing.c:226 0
KLEE: WARNING ONCE: Alignment of memory from call "calloc" is not modelled. Using alignment of 8.
KLEE: WARNING ONCE: calling external: printf(94823408677864, 4294967186) at ssl_cli.c:781 29
KLEE: WARNING ONCE: silently concretizing (reason: max-sym-array-size) expression (Add w64 94823383777434
          (Select w64 (Ult 16372
                           N0:(Add w64 18446744073709551604
                                       (ReadLSB w64 N1:(Extract w32 0 (Add w64 18446649250299595176
                                                                               (ReadLSB w64 968 U0:[N2:(Extract w32 0 (Add w64 1032
                                                                                                                               N3:(Mul w64 24
                                                                                                                                           (ZExt w64 (ZExt w32 (Read w8 1 HVR-MessageSequence))))))=(Or w8 (Read w8 N2 U1:[1023=(Extract w8 56 N4:(Add w64 47
                                                                                                                                                                                                                                                           (ReadLSB w64 1016 U2:[N2=(Or w8 (Read w8 N2 U3:[(Add w32 7
                                                                                                                                                                                                                                                                                                                    N5:(Extract w32 0 (Add w64 1048 N3)))=0,
                                                                                                                                                                                                                                                                                                           (Add w32 6 N5)=0,
                                                                                                                                                                                                                                                                                                           (Add w32 5 N5)=0,
                                                                                                                                                                                                                                                                                                           (Add w32 4 N5)=0,
                                                                                                                                                                                                                                                                                                           (Add w32 3 N5)=0,
                                                                                                                                                                                                                                                                                                           (Add w32 2 N5)=0,
                                                                                                                                                                                                                                                                                                           (Add w32 1 N5)=0,
                                                                                                                                                                                                                                                                                                           N5=47,
                                                                                                                                                                                                                                                                                                           (Add w32 7
                                                                                                                                                                                                                                                                                                                    N6:(Extract w32 0 (Add w64 1040 N3)))=0,
                                                                                                                                                                                                                                                                                                           (Add w32 6 N6)=0,
                                                                                                                                                                                                                                                                                                           (Add w32 5 N6)=86,
                                                                                                                                                                                                                                                                                                           (Add w32 4 N6)=61,
                                                                                                                                                                                                                                                                                                           (Add w32 3 N6)=203,
                                                                                                                                                                                                                                                                                                           (Add w32 2 N6)=212,
                                                                                                                                                                                                                                                                                                           (Add w32 1 N6)=102,
                                                                                                                                                                                                                                                                                                           N6=0,
                                                                                                                                                                                                                                                                                                           N2=(And w8 (Read w8 N2 const_arr1) 253)] @ const_arr1)
                                                                                                                                                                                                                                                                                           1)] @ U3))),
                                                                                                                                                                                                                           1022=(Extract w8 48 N4),
                                                                                                                                                                                                                           1021=(Extract w8 40 N4),
                                                                                                                                                                                                                           1020=(Extract w8 32 N4),
                                                                                                                                                                                                                           1019=(Extract w8 24 N4),
                                                                                                                                                                                                                           1018=(Extract w8 16 N4),
                                                                                                                                                                                                                           1017=(Extract w8 8 N4),
                                                                                                                                                                                                                           1016=(Extract w8 0 N4)] @ U2)
                                                                                                                                                                                                           4)] @ U1))) const_arr3)))
                      16372
                      N0)) to value 94823383777538 (libc/string/memcpy.c:30)
KLEE: WARNING ONCE: calling external: vprintf(94823390305792, 94823413569568) at libc/stdio/fprintf.c:35 14
KLEE: WARNING: STP timed out
